nome;sku;descricao;quantidade;preco;categoria
Eplerenone;42254-011;Bypass Innominate Artery to Bilateral Upper Leg Artery with Synthetic Substitute;59;2300.39;Comedy|Horror|Thriller
Covergirl Queen Collection All Day Flawless 3in1 Foundation;22700-149;Resection of Left Lower Arm and Wrist Tendon;38;3657.53;Documentary
Clonidine Hydrochloride;0517-0730;Restriction of Splenic Vein with Extraluminal Device;50;4866.35;Documentary
Intelence;59676-572;Drainage of Right Foot Muscle;21;38;Comedy
Chorionic Gonadotropin;63323-025;Division of Left Lower Leg Muscle;97;4042.02;Horror
acid controller;59779-194;Introduction of Blood Brain Barrier Disruption Substance into Peripheral Artery;36;600.23;Animation|Children|Fantasy
Oral-B NeutraCare Mint;0041-0241;Low Dose Rate (LDR) Brachytherapy of Diaphragm using Other Isotope;22;22;Animation|Children|Fantasy
acid reducer;41250-047;Division of Head and Neck Tendon;69;6048.83;Horror|Thriller
Petroleum;37808-519;Ultrasonography of Gallbladder and Bile Ducts;22;8787.29;Documentary
